module gitlab.com/belov/go-ethereum-hdwallet

go 1.18

require (
	github.com/btcsuite/btcd v0.23.4
	github.com/btcsuite/btcd/btcutil v1.1.3
	github.com/davecgh/go-spew v1.1.1
	github.com/ethereum/go-ethereum v1.12.0
	github.com/tyler-smith/go-bip39 v1.1.0
)

require (
	github.com/btcsuite/btcd/btcec/v2 v2.3.2 // indirect
	github.com/btcsuite/btcd/chaincfg/chainhash v1.0.2 // indirect
	github.com/decred/dcrd/dcrec/secp256k1/v4 v4.2.0 // indirect
	github.com/holiman/uint256 v1.2.2-0.20230321075855-87b91420868c // indirect
	golang.org/x/crypto v0.10.0 // indirect
	golang.org/x/sys v0.9.0 // indirect
)
